Ravens and Roadkill: example analysis
…
We use the spatstat model fitting function lppm to generate a model frame from the full (saturated) model:

m.spat <- lppm(ravens_lpp ~ 1 + X_F + X_R, eps = 15) 
m.spat %>% model.frame.lppm %>% as_tibble

## # A tibble: 1,227 x 4
##    .mpl.Y    X_F     X_R `(weights)`
##     <dbl>  <dbl>   <dbl>       <dbl>
##  1  0.133   5.28  167.          7.5 
##  2  0.133   1.20   19.2         7.5 
##  3  0.133  10.8    45.4         7.5 
##  4  0.133  11.8   105.          7.5 
##  5  0.200 549.   1278.          5.00
##  6  0.133   8.43   49.0         7.5 
##  7  0.133  24.0    17.3         7.5 
##  8  0.201  12.3     9.95        4.99
##  9  0.203  22.4   145.          4.92
## 10  0.133  19.3   608.          7.5 
## #  with 1,217 more rows

This generates a numerical quadrature scheme with added dummy points spaced by eps = 15 units. Each row of the model frame is a single quadrat, where the weight ((weights)) denotes the quadrat size (effort) and the response (.mpl.Y) is the observed density (0 for a dummy point, 1/weight for an observation). The covariate values are given in the remaining two columns.

We rename the columns and add a presence/absence transformation of the response which we call y2 (0 for a dummy point, 1 for an observation).

mf <- m.spat %>% model.frame.lppm %>% rename(y1 = .mpl.Y, w = `(weights)`) %>% mutate(y2 = as.numeric(y1>0))
mf %>% as_tibble

## # A tibble: 1,227 x 5
##       y1    X_F     X_R     w    y2
##    <dbl>  <dbl>   <dbl> <dbl> <dbl>
##  1 0.133   5.28  167.    7.5      1
##  2 0.133   1.20   19.2   7.5      1
##  3 0.133  10.8    45.4   7.5      1
##  4 0.133  11.8   105.    7.5      1
##  5 0.200 549.   1278.    5.00     1
##  6 0.133   8.43   49.0   7.5      1
##  7 0.133  24.0    17.3   7.5      1
##  8 0.201  12.3     9.95  4.99     1
##  9 0.203  22.4   145.    4.92     1
## 10 0.133  19.3   608.    7.5      1
## #  with 1,217 more rows
…
